…
each_city_nest = 
  each_city_nest %>% 
  mutate(output = map(each_city_nest$city_state, prop_unsolved_each_city)) %>% 
  unnest()
```

    ## Warning in prop.test(x = prop_unsolved$unsolved_homicides, n =
    ## prop_unsolved$total_homicides): Chi-squared approximation may be incorrect

``` r
each_city_nest
```

    ## # A tibble: 51 x 6
    ##    city_state  total_homicides unsolved_homici… estimate upper_CI lower_CI
    ##    <chr>                 <int>            <int>    <dbl>    <dbl>    <dbl>
    ##  1 Albuquerqu…             378              146    0.386    0.337    0.438
    ##  2 Atlanta, GA             973              373    0.383    0.353    0.415
    ##  3 Baltimore,…            2827             1825    0.646    0.628    0.663
    ##  4 Baton Roug…             424              196    0.462    0.414    0.511
    ##  5 Birmingham…             800              347    0.434    0.399    0.469
    ##  6 Boston, MA              614              310    0.505    0.465    0.545
    ##  7 Buffalo, NY             521              319    0.612    0.569    0.654
    ##  8 Charlotte,…             687              206    0.300    0.266    0.336
    ##  9 Chicago, IL            5535             4073    0.736    0.724    0.747
    ## 10 Cincinnati…             694              309    0.445    0.408    0.483
    ## # ... with 41 more rows
…
